<svg xmlns="http://www.w3.org/2000/svg" viewBox="6058 1103 24 24">
  <defs>
    <style>
      .cls-1 {
        fill: none;
      }

      .cls-2 {
        fill: #3379ff;
      }
    </style>
  </defs>
  <g id="ic_favorite_black_18px" transform="translate(6058 1103)">
    <path id="Path_1460" data-name="Path 1460" class="cls-1" d="M0,0H24V24H0Z"/>
    <path id="Path_1461" data-name="Path 1461" class="cls-2" d="M12,21.35l-1.45-1.32C5.4,15.36,2,12.28,2,8.5A5.447,5.447,0,0,1,7.5,3,5.988,5.988,0,0,1,12,5.09,5.988,5.988,0,0,1,16.5,3,5.447,5.447,0,0,1,22,8.5c0,3.78-3.4,6.86-8.55,11.54Z"/>
  </g>
</svg>
