<svg xmlns="http://www.w3.org/2000/svg" viewBox="-6670 -6438 24 24.001">
  <defs>
    <style>
      .cls-1 {
        fill: #3379ff;
      }

      .cls-2 {
        fill: none;
      }
    </style>
  </defs>
  <g id="ic_edit_white" transform="translate(-6670 -6437.999)">
    <path id="Path_1797" data-name="Path 1797" class="cls-1" d="M17.75,7,14,3.25l-10,10V17H7.75Zm2.96-2.96a1,1,0,0,0,0-1.41L18.37.29a1,1,0,0,0-1.41,0L15,2.25,18.75,6Z"/>
    <path id="Path_1798" data-name="Path 1798" class="cls-2" d="M0,0H24V24H0Z"/>
    <path id="Path_1799" data-name="Path 1799" class="cls-1" d="M0,20H24v4H0Z"/>
  </g>
</svg>
