<svg xmlns="http://www.w3.org/2000/svg" viewBox="-10260 -9338 16 16">
  <defs>
    <style>
      .cls-1 {
        opacity: 0.3;
      }

      .cls-2 {
        fill: none;
      }
    </style>
  </defs>
  <g id="ic_location_on_black_24px" class="cls-1" transform="translate(-10260 -9338)">
    <path id="Path_5" data-name="Path 5" d="M9.667,2A4.663,4.663,0,0,0,5,6.667c0,3.5,4.667,8.667,4.667,8.667s4.667-5.167,4.667-8.667A4.663,4.663,0,0,0,9.667,2Zm0,6.333a1.667,1.667,0,1,1,1.667-1.667A1.667,1.667,0,0,1,9.667,8.333Z" transform="translate(-1.667 -0.667)"/>
    <path id="Path_6" data-name="Path 6" class="cls-2" d="M0,0H16V16H0Z"/>
  </g>
</svg>
