<svg xmlns="http://www.w3.org/2000/svg" viewBox="-6623 -6508 24 24">
  <defs>
    <style>
      .cls-1 {
        fill: none;
      }

      .cls-2 {
        fill: #3379ff;
      }
    </style>
  </defs>
  <g id="ic_nav_logout" transform="translate(-6654 -7154)">
    <path id="Path_1490" data-name="Path 1490" class="cls-1" d="M0,0H24V24H0Z" transform="translate(31 646)"/>
    <path id="Path_1491" data-name="Path 1491" class="cls-2" d="M13,3H11V13h2Zm4.83,2.17L16.41,6.59A6.92,6.92,0,0,1,19,12,7,7,0,1,1,7.58,6.58L6.17,5.17a9,9,0,1,0,11.66,0Z" transform="translate(31 646)"/>
  </g>
</svg>
